{
  "IsEnabled": true,
  "EngineConfiguration": {
    "PollInterval": "00:00:15",
    "Components": [
      {
        "Id": "ApplicationEventLog",
        "FullName": "AWS.EC2.Windows.CloudWatch.EventLog.EventLogInputComponent,AWS.EC2.Windows.CloudWatch",
        "Parameters": {
          "LogName": "Application",
          "Levels": "7"
        }
      },
      {
        "Id": "SystemEventLog",
        "FullName": "AWS.EC2.Windows.CloudWatch.EventLog.EventLogInputComponent,AWS.EC2.Windows.CloudWatch",
        "Parameters": {
          "LogName": "System",
          "Levels": "7"
        }
      },
      {
        "Id": "SecurityEventLog",
        "FullName": "AWS.EC2.Windows.CloudWatch.EventLog.EventLogInputComponent,AWS.EC2.Windows.CloudWatch",
        "Parameters": {
          "LogName": "Security",
          "Levels": "7"
        }
      },
      {
        "Id": "ETW",
        "FullName": "AWS.EC2.Windows.CloudWatch.EventLog.EventLogInputComponent,AWS.EC2.Windows.CloudWatch",
        "Parameters": {
          "LogName": "Microsoft-Windows-WinINet/Analytic",
          "Levels": "7"
        }
      },
      {
        "Id": "IISLog",
        "FullName": "AWS.EC2.Windows.CloudWatch.IisLog.IisLogInputComponent,AWS.EC2.Windows.CloudWatch",
        "Parameters": {
          "LogDirectoryPath": "C:\\inetpub\\logs\\LogFiles\\W3SVC1"
        }
      },
      {
        "Id": "CustomLogs",
        "FullName": "AWS.EC2.Windows.CloudWatch.CustomLog.CustomLogInputComponent,AWS.EC2.Windows.CloudWatch",
        "Parameters": {
          "LogDirectoryPath": "C:\\CustomLogs\\",
          "TimestampFormat": "MM/dd/yyyy HH:mm:ss",
          "Encoding": "UTF-8",
          "Filter": "",
          "CultureName": "en-US",
          "TimeZoneKind": "Local"
        }
      },
      {
        "Id": "EC2ConfigLog",
        "FullName": "AWS.EC2.Windows.CloudWatch.CustomLog.CustomLogInputComponent,AWS.EC2.Windows.CloudWatch",
        "Parameters": {
          "LogDirectoryPath": "C:\\Program Files\\Amazon\\Ec2ConfigService\\Logs",
          "TimestampFormat": "yyyy-MM-ddTHH:mm:ss.fffZ:",
          "Encoding": "UTF-8",
          "Filter": "EC2ConfigLog.txt",
          "CultureName": "en-US",
          "TimeZoneKind": "UTC"
        }
      },
      {
        "Id": "PerformanceCounter",
        "FullName": "AWS.EC2.Windows.CloudWatch.PerformanceCounterComponent.PerformanceCounterInputComponent,AWS.EC2.Windows.CloudWatch",
        "Parameters": {
          "CategoryName": "Memory",
          "CounterName": "Available MBytes",
          "InstanceName": "",
          "MetricName": "Memory",
          "Unit": "Megabytes",
          "DimensionName": "",
          "DimensionValue": ""
        }
      },
      {
        "Id": "CloudWatchLogsApplication",
        "FullName": "AWS.EC2.Windows.CloudWatch.CloudWatchLogsOutput,AWS.EC2.Windows.CloudWatch",
        "Parameters": {
          "Region": "ap-southeast-2",
          "LogGroup": "/ec2/windows/application",
          "LogStream": "{instance_id}"
        }
      },
      {
        "Id": "CloudWatchLogsSystem",
        "FullName": "AWS.EC2.Windows.CloudWatch.CloudWatchLogsOutput,AWS.EC2.Windows.CloudWatch",
        "Parameters": {
          "Region": "ap-southeast-2",
          "LogGroup": "/ec2/windows/system",
          "LogStream": "{instance_id}"
        }
      },
      {
        "Id": "CloudWatchLogsSecurity",
        "FullName": "AWS.EC2.Windows.CloudWatch.CloudWatchLogsOutput,AWS.EC2.Windows.CloudWatch",
        "Parameters": {
          "Region": "ap-southeast-2",
          "LogGroup": "/ec2/windows/security",
          "LogStream": "{instance_id}"
        }
      },
      {
        "Id": "CloudWatchLogsEC2Config",
        "FullName": "AWS.EC2.Windows.CloudWatch.CloudWatchLogsOutput,AWS.EC2.Windows.CloudWatch",
        "Parameters": {
          "Region": "ap-southeast-2",
          "LogGroup": "/ec2/windows/ec2config",
          "LogStream": "{instance_id}"
        }
      },
      {
        "Id": "CloudWatch",
        "FullName": "AWS.EC2.Windows.CloudWatch.CloudWatch.CloudWatchOutputComponent,AWS.EC2.Windows.CloudWatch",
        "Parameters":
        {
          "Region": "ap-southeast-2",
          "NameSpace": "AWS/EC2"
        }
      }
    ],
    "Flows": {
      "Flows":
      [
        "ApplicationEventLog,CloudWatchLogsApplication",
        "SystemEventLog,CloudWatchLogsSystem",
        "SecurityEventLog,CloudWatchLogsSecurity",
        "EC2ConfigLog,CloudWatchLogsEC2Config"
      ]
    }
  }
}
